material xAxe
{
	receive_shadows on
	technique
	{
		pass
		{
			ambient 0.500000 0.000000 0.000000 1.000000
			diffuse 0.844757 0.000000 0.000000 1.000000
			specular 0.679027 0.679027 0.679027 1.000000 29.500000
			emissive 0.500000 0.000000 0.000000 1.000000
		}
	}
}
